id;Логин исполнителя;Заголовок;Сложность;Статус;Характер работы
1;galiulina;Проектирование системы для "ООО Автопром-сервис";20;plan;analysis
2;galiulina;Установка оборудования для "ООО Автопром-сервис";25;plan;deployment
3;kudryashov;Анализ поломки оборудования у "Пятерочка";12;plan;support
4;velizhanina;Подготовить коммерческое предложение для "Евросеть";45;plan;analysis
5;plotnikova;Подготовить коммерческое предложение для "Дикси";35;plan;analysis
6;malcev;Установка оборудования для "ООО Магнит";32;plan;deployment
7;morozova;Установка оборудования для "Бристоль";24;plan;deployment
8;morozova;Отправить пригласительные письма потенциальным клиентам;15;plan;analysis
9;pyankova;Отработать возражения от "Пчелки";34;plan;analysis
