id;login;password;name;grade;manager_id
1;galiulina;12345;Галиуллина Альбина Нафисовна;junior;1
2;kudryashov;12345;Кудряшов Александр Витальевич;middle;1
3;velizhanina;12345;Велижанина Светлана Николаевна;senior;2
4;plotnikova;12345;Плотникова Алевтина Валентиновна;junior;2
5;malcev;12345;Мальцев Александр Сергеевич;middle;2
6;morozova;12345;Морозова Екатерина Владимировна;junior;3
7;pyankova;12345;Пьянкова Анастасия Борисовна;junior;3
